{
    "/js/app.js": "/js/app.js",
    "/css/app.css": "/css/app.css",
    "/pixel-admin/css/bootstrap.min.css": "/pixel-admin/css/bootstrap.min.css",
    "/pixel-admin/css/pixel-admin.min.css": "/pixel-admin/css/pixel-admin.min.css",
    "/pixel-admin/css/pages.min.css": "/pixel-admin/css/pages.min.css",
    "/pixel-admin/css/widgets.min.css": "/pixel-admin/css/widgets.min.css",
    "/pixel-admin/css/rtl.min.css": "/pixel-admin/css/rtl.min.css",
    "/pixel-admin/css/themes.min.css": "/pixel-admin/css/themes.min.css",
    "/pixel-admin/js/bootstrap.min.js": "/pixel-admin/js/bootstrap.min.js",
    "/pixel-admin/js/pixel-admin.min.js": "/pixel-admin/js/pixel-admin.min.js",
    "/pixel-admin/js/jquery.min.js": "/pixel-admin/js/jquery.min.js",
    "/img/logo.png": "/img/logo.png",
    "/img/signin-bg-1.jpg": "/img/signin-bg-1.jpg",
    "/img/1.jpg": "/img/1.jpg"
}